9 Collection of exercises – How to Use R for Data Science
…
# setwd("/home/sthu/Dropbox/hsf/test")
rm(list = ls())

# load packages
if (!require(pacman)) install.packages("pacman")
pacman::p_load(datasets, tidyverse)

# a)
mtcars_new <- mtcars |>
  rownames_to_column(var = "car") |>
  as_tibble() |>
  mutate(d_cyl_6to8 = if_else(cyl > 6, 1, 0))
mtcars_new

# A tibble: 32 × 13
   car           mpg   cyl  disp    hp  drat    wt  qsec    vs    am  gear  carb
   <chr>       <dbl> <dbl> <dbl> <dbl> <dbl> <dbl> <dbl> <dbl> <dbl> <dbl> <dbl>
 1 Mazda RX4    21       6  160    110  3.9   2.62  16.5     0     1     4     4
 2 Mazda RX4 …  21       6  160    110  3.9   2.88  17.0     0     1     4     4
 3 Datsun 710   22.8     4  108     93  3.85  2.32  18.6     1     1     4     1
 4 Hornet 4 D…  21.4     6  258    110  3.08  3.22  19.4     1     0     3     1
 5 Hornet Spo…  18.7     8  360    175  3.15  3.44  17.0     0     0     3     2
 6 Valiant      18.1     6  225    105  2.76  3.46  20.2     1     0     3     1
 7 Duster 360   14.3     8  360    245  3.21  3.57  15.8     0     0     3     4
 8 Merc 240D    24.4     4  147.    62  3.69  3.19  20       1     0     4     2
 9 Merc 230     22.8     4  141.    95  3.92  3.15  22.9     1     0     4     2
10 Merc 280     19.2     6  168.   123  3.92  3.44  18.3     1     0     4     4
# ℹ 22 more rows
# ℹ 1 more variable: d_cyl_6to8 <dbl>

# b)
mtcars_new <- mtcars_new |>
  mutate(posercar = if_else(cyl > 6 & mpg < 18, 1, 0))
mtcars_new

# A tibble: 32 × 14
   car           mpg   cyl  disp    hp  drat    wt  qsec    vs    am  gear  carb
   <chr>       <dbl> <dbl> <dbl> <dbl> <dbl> <dbl> <dbl> <dbl> <dbl> <dbl> <dbl>
 1 Mazda RX4    21       6  160    110  3.9   2.62  16.5     0     1     4     4
 2 Mazda RX4 …  21       6  160    110  3.9   2.88  17.0     0     1     4     4
 3 Datsun 710   22.8     4  108     93  3.85  2.32  18.6     1     1     4     1
 4 Hornet 4 D…  21.4     6  258    110  3.08  3.22  19.4     1     0     3     1
 5 Hornet Spo…  18.7     8  360    175  3.15  3.44  17.0     0     0     3     2
 6 Valiant      18.1     6  225    105  2.76  3.46  20.2     1     0     3     1
 7 Duster 360   14.3     8  360    245  3.21  3.57  15.8     0     0     3     4
 8 Merc 240D    24.4     4  147.    62  3.69  3.19  20       1     0     4     2
 9 Merc 230     22.8     4  141.    95  3.92  3.15  22.9     1     0     4     2
10 Merc 280     19.2     6  168.   123  3.92  3.44  18.3     1     0     4     4
# ℹ 22 more rows
# ℹ 2 more variables: d_cyl_6to8 <dbl>, posercar <dbl>

# c)
mtcars_new <- mtcars_new |>
  select(-d_cyl_6to8)
mtcars_new

# A tibble: 32 × 13
   car           mpg   cyl  disp    hp  drat    wt  qsec    vs    am  gear  carb
   <chr>       <dbl> <dbl> <dbl> <dbl> <dbl> <dbl> <dbl> <dbl> <dbl> <dbl> <dbl>
 1 Mazda RX4    21       6  160    110  3.9   2.62  16.5     0     1     4     4
 2 Mazda RX4 …  21       6  160    110  3.9   2.88  17.0     0     1     4     4
 3 Datsun 710   22.8     4  108     93  3.85  2.32  18.6     1     1     4     1
 4 Hornet 4 D…  21.4     6  258    110  3.08  3.22  19.4     1     0     3     1
 5 Hornet Spo…  18.7     8  360    175  3.15  3.44  17.0     0     0     3     2
 6 Valiant      18.1     6  225    105  2.76  3.46  20.2     1     0     3     1
 7 Duster 360   14.3     8  360    245  3.21  3.57  15.8     0     0     3     4
 8 Merc 240D    24.4     4  147.    62  3.69  3.19  20       1     0     4     2
 9 Merc 230     22.8     4  141.    95  3.92  3.15  22.9     1     0     4     2
10 Merc 280     19.2     6  168.   123  3.92  3.44  18.3     1     0     4     4
# ℹ 22 more rows
# ℹ 1 more variable: posercar <dbl>
…
ds <- datasaurus_dozen
ds_wide <- datasaurus_dozen_wide

# Open and read the R vignette of the datasauRus package.
#   Also open the R documentation of the dataset datasaurus_dozen.

??datasaurus

# Explore the dataset: What are the dimensions of this dataset? Look at the descriptive statistics.

ds

# A tibble: 1,846 × 3
   dataset     x     y
   <chr>   <dbl> <dbl>
 1 dino     55.4  97.2
 2 dino     51.5  96.0
 3 dino     46.2  94.5
 4 dino     42.8  91.4
 5 dino     40.8  88.3
 6 dino     38.7  84.9
 7 dino     35.6  79.9
 8 dino     33.1  77.6
 9 dino     29.0  74.5
10 dino     26.2  71.4
# ℹ 1,836 more rows
…
data

# A tibble: 107 × 13
   country    gdppc60 gdppc65 gdppc70 gdppc75 gdppc80 gdppc85 gdppc90 gdppc95
   <chr>        <dbl>   <dbl>   <dbl>   <dbl>   <dbl>   <dbl>   <dbl>   <dbl>
 1 Algeria      2848.   3536.   3670.   3917.   5094.   5876.   5307.   4935.
 2 Angola       2642.   3072.   3558.   2230.   2059.   1988.   2081.   1339.
 3 Argentina    7879.   8802.   9903.  10609.  11359.   9246.   7716.  10973.
 4 Australia   11436.  13192.  15842.  16716.  18300.  19669.  21446.  23827.
 5 Austria      7842.   9387.  11946.  14198.  16869.  17919.  21178.  22474.
 6 Bangladesh   1130.   1164.   1181.   1030.   1040.   1245.   1366.   1568.
 7 Barbados     3632.   4632.   6456.   8827.  10911.  11090.  14411.  14636.
 8 Belgium      8314.  10454.  12980.  15024.  17451.  18109.  21246.  22356.
 9 Benin        1140.   1188.   1170.   1048.   1069.   1252.   1069.   1139.
10 Bolivia      2516.   2880.   2670.   3124.   3264.   2718.   2615.   2795.
# ℹ 97 more rows
# ℹ 4 more variables: africa <dbl>, asia <dbl>, weurope <dbl>, growth <dbl>
…
# Re-order the data so that surname, name, and age appears first.
# Save the changed data in a tibble called `df`.
df <- df_2022 |>
  relocate(surname, name, age)

# Sort the data according to surname, name, and age.
df <- df |>
  arrange(surname, name, age)

# Inspect df_2022 and df_2022_error
df

# A tibble: 1,018 × 8
   surname name       age sex      cm  time error error_desc
   <chr>   <chr>    <dbl> <chr> <dbl> <dbl> <dbl> <chr>     
 1 Adams   Adonnis     30 M      192   2022     0 <NA>      
 2 Adams   Adonnis     30 M      192   2022     1 duplicate 
 3 Adams   Aila        79 F      157   2022     0 <NA>      
 4 Adams   Avenelle    69 F      157   2022     0 <NA>      
 5 Adams   Brysan      39 M      192   2022     0 <NA>      
 6 Adams   Eona        84 F      157   2022     0 <NA>      
 7 Adams   Eveline     42 F      157   2022     0 <NA>      
 8 Adams   Faithe      17 F      172.  2022     0 <NA>      
 9 Adams   Ineisha     47 F      157   2022     0 <NA>      
10 Adams   Kloeigh     31 F      157   2022     0 <NA>      
# ℹ 1,008 more rows
…
