9 Script: exe_duplicates.R (not in the lecture notes) | How to Use R for Data Science
…
# Re-order the data so that surname, name, and age appears first. 
# Save the changed data in a tibble called `df`.
df <- df_2022 |> 
  relocate(surname, name, age)

# Sort the data according to surname, name, and age.
df <- df |> 
  arrange(surname, name, age)

# Inspect df_2022 and df_2022_error 
df

## # A tibble: 1,018 × 8
##    surname name       age sex      cm  time error error_desc
##    <chr>   <chr>    <dbl> <chr> <dbl> <dbl> <dbl> <chr>     
##  1 Adams   Adonnis     30 M      192   2022     0 <NA>      
##  2 Adams   Adonnis     30 M      192   2022     1 duplicate 
##  3 Adams   Aila        79 F      157   2022     0 <NA>      
##  4 Adams   Avenelle    69 F      157   2022     0 <NA>      
##  5 Adams   Brysan      39 M      192   2022     0 <NA>      
##  6 Adams   Eona        84 F      157   2022     0 <NA>      
##  7 Adams   Eveline     42 F      157   2022     0 <NA>      
##  8 Adams   Faithe      17 F      172.  2022     0 <NA>      
##  9 Adams   Ineisha     47 F      157   2022     0 <NA>      
## 10 Adams   Kloeigh     31 F      157   2022     0 <NA>      
## # ℹ 1,008 more rows
…
