16 Script: convergence.R | How to Use R for Data Science
…
data

## # A tibble: 107 × 13
##    country    gdppc60 gdppc65 gdppc70 gdppc75 gdppc80 gdppc85 gdppc90 gdppc95 africa  asia weurope    growth
##    <chr>        <dbl>   <dbl>   <dbl>   <dbl>   <dbl>   <dbl>   <dbl>   <dbl>  <dbl> <dbl>   <dbl>     <dbl>
##  1 Algeria      2848.   3536.   3670.   3917.   5094.   5876.   5307.   4935.      1     0       0  0.550   
##  2 Angola       2642.   3072.   3558.   2230.   2059.   1988.   2081.   1339.      1     0       0 -0.680   
##  3 Argentina    7879.   8802.   9903.  10609.  11359.   9246.   7716.  10973.      0     0       0  0.331   
##  4 Australia   11436.  13192.  15842.  16716.  18300.  19669.  21446.  23827.      0     0       0  0.734   
##  5 Austria      7842.   9387.  11946.  14198.  16869.  17919.  21178.  22474.      0     0       0  1.05    
##  6 Bangladesh   1130.   1164.   1181.   1030.   1040.   1245.   1366.   1568.      0     1       0  0.328   
##  7 Barbados     3632.   4632.   6456.   8827.  10911.  11090.  14411.  14636.      0     0       0  1.39    
##  8 Belgium      8314.  10454.  12980.  15024.  17451.  18109.  21246.  22356.      0     0       1  0.989   
##  9 Benin        1140.   1188.   1170.   1048.   1069.   1252.   1069.   1139.      1     0       0 -0.000731
## 10 Bolivia      2516.   2880.   2670.   3124.   3264.   2718.   2615.   2795.      0     0       0  0.105   
## # ℹ 97 more rows
…
